#FIG 3.2  Produced by xfig version 3.2.7a
Landscape
Center
Metric
A4
100.00
Single
-2
1200 2
2 2 0 1 1 7 50 -1 -1 0.000 0 0 -1 0 0 5
	 315 1048 13050 1048 13050 10106 315 10106 315 1048
4 0 0 50 -1 2 18 0.0000 4 255 4425 810 6165 Without insisting that anyone has to\001
4 0 0 50 -1 2 18 0.0000 4 255 3030 810 5175 When maintainers opt in\001
4 0 0 50 -1 14 18 0.0000 4 180 3135 765 9045 irc.oftc.net Diziet\001
4 0 0 50 -1 14 18 0.0000 4 240 3960 765 9585 spwhitton@spwhitton.name\001
4 0 0 50 -1 2 20 0.0000 4 300 5895 810 7830 Project by Ian Jackson and Sean Whitton\001
4 0 0 50 -1 14 18 0.0000 4 240 5115 765 8730 ijackson@chiark.greenend.org.uk\001
4 0 0 50 -1 2 20 0.0000 4 300 5325 810 8190 Talk at Cambridge Minidebconf 2023\001
4 0 0 50 -1 2 30 0.0000 4 435 2385 765 1800 tag2upload\001
4 0 0 50 -1 2 22 0.0000 4 330 2025 810 2520 A project to:\001
4 0 0 50 -1 2 22 0.0000 4 330 11310 1215 3195 Improve traceability, reproducibility and fidelity of Debian source code\001
4 0 0 50 -1 2 18 0.0000 4 255 3615 5580 6435 or do anything else differently\001
4 0 0 50 -1 2 18 0.0000 4 255 5415 5580 6165 stop using .dscs if they like that kind of thing\001
4 0 0 50 -1 2 18 0.0000 4 255 6045 5625 5175 but without changes to their existing git workflows\001
4 0 0 50 -1 2 22 0.0000 4 330 6990 1170 4275 Make uploading massively more convenient\001
4 0 0 50 -1 2 22 0.0000 4 330 11625 1170 3735 Provide proper, usable source code in git form to downstreams and users\001
