#FIG 3.2  Produced by xfig version 3.2.7a
Landscape
Center
Metric
A4
100.00
Single
-2
1200 2
5 1 0 3 0 7 40 -1 -1 0.000 0 1 1 0 1586.017 5414.896 1170 5175 1575 5895 1935 5085
	2 1 5.00 150.00 150.00
6 9990 8685 11115 9090
4 0 0 40 -1 18 14 0.0000 4 240 1080 9990 8865 uniformly\001
4 0 0 40 -1 18 14 0.0000 4 180 1050 10035 9090 buildable\001
-6
1 2 0 1 0 7 52 -1 20 0.000 1 0.0000 10575 9180 675 225 9900 9180 11250 9180
1 2 0 1 0 7 50 -1 20 0.000 1 0.0000 10575 7380 675 225 9900 7380 11250 7380
2 1 0 3 0 7 40 -1 20 0.000 0 0 -1 1 0 2
	2 1 5.00 150.00 150.00
	 11340 8370 11970 8370
2 1 0 1 0 7 51 -1 20 0.000 0 0 7 0 0 4
	 9900 9180 9900 7380 11250 7380 11250 9180
2 2 0 1 0 7 40 -1 20 0.000 0 0 -1 0 0 5
	 900 3735 2250 3735 2250 4905 900 4905 900 3735
2 1 0 3 0 7 40 -1 -1 0.000 0 0 -1 1 0 2
	2 1 5.00 150.00 150.00
	 9450 7200 2520 3960
2 1 1 1 0 7 50 -1 -1 4.000 0 0 -1 0 0 2
	 5850 2025 5850 9450
2 2 0 3 4 7 20 -1 -1 0.000 0 0 -1 0 0 5
	 8730 5715 12780 5715 12780 6750 8730 6750 8730 5715
2 2 0 1 1 7 50 -1 -1 0.000 0 0 -1 0 0 5
	 315 1048 13050 1048 13050 10106 315 10106 315 1048
3 0 0 3 0 7 40 -1 -1 0.000 0 1 0 4
	2 1 5.00 150.00 150.00
	 2520 4545 4275 6795 6885 7875 9405 7875
	 0.000 1.000 1.000 0.000
4 0 0 52 -1 3 24 0.0000 4 360 2160 720 3510 working tree\001
4 0 0 52 -1 3 24 0.0000 4 270 2175 720 3150 maintainer's\001
4 0 0 40 -1 18 18 0.0000 4 210 1155 4500 2250 AD-HOC\001
4 0 0 40 -1 18 18 0.0000 4 210 3285 6030 2250 FULLY STANDARDISED\001
4 0 0 40 -1 18 14 0.0000 4 225 1050 7875 8325 .changes\001
4 0 0 40 -1 18 14 0.0000 4 180 480 7875 8055 .dsc\001
4 0 0 40 -1 14 24 0.0000 4 345 1680 9720 7065 ftp.d.o\001
4 0 0 40 -1 14 18 0.0000 4 240 2805 2565 7560 dpkg-buildpackage\001
4 0 0 40 -1 14 18 0.0000 4 240 1815 3465 7830 signchanges\001
4 0 0 40 -1 14 18 0.0000 4 240 660 7785 7695 dput\001
4 0 0 40 -1 14 18 0.0000 4 195 825 1035 6435 cp -r\001
4 0 0 40 -1 14 18 0.0000 4 255 1650 1035 6750 diff/patch\001
4 0 0 40 -1 14 18 0.0000 4 195 825 1035 7050 rsync\001
4 0 0 40 -1 14 18 0.0000 4 240 1320 1035 6165 emacs/vi\001
4 0 0 40 -1 0 20 0.0000 4 300 7080 675 1620 Debian source code management and dataflow, 1993\001
4 0 0 40 -1 14 18 0.0000 4 240 2310 5895 5490 apt-get source\001
4 0 4 20 -1 2 20 0.0000 4 285 4245 8235 1620 Still the official theory in 2023\001
4 0 4 20 -1 16 40 0.0000 4 645 7590 3780 4320 Source code is in git now!\001
4 0 4 20 -1 16 80 0.0000 4 1020 4050 4185 3600 L I E S\001
4 0 0 40 -1 18 14 0.0000 4 210 360 11430 8145 apt\001
4 0 0 52 -1 3 24 0.0000 4 270 810 12015 8235 User\001
4 0 0 52 -1 3 24 0.0000 4 345 510 12105 8595 (or\001
4 0 0 52 -1 3 24 0.0000 4 345 1290 11610 9225 stream)\001
4 0 0 52 -1 3 24 0.0000 4 285 915 11835 8910 down\001
4 0 4 20 -1 18 24 0.0000 4 300 3870 9090 5625 NO LONGER TRUE!\001
4 0 0 40 -1 18 24 0.0000 4 300 4110 8775 6165 PRINCIPAL SOURCE\001
4 0 0 40 -1 18 24 0.0000 4 300 3465 9495 6615 CODE LOCATION\001
4 0 4 20 -1 16 32 0.0000 4 510 3630 2925 6660 Terribly clumsy\001
4 0 4 20 -1 16 32 0.0000 4 510 6930 855 8775 Very few Debian contributors\001
4 0 4 20 -1 16 32 0.0000 4 495 5670 1845 9270 are still working like this\001
