#FIG 3.2  Produced by xfig version 3.2.9
#encoding: UTF-8
Landscape
Center
Metric
A4
100.00
Single
-2
1200 2
2 2 0 1 1 7 50 -1 -1 0.000 0 0 -1 0 0 5
	 315 1048 13050 1048 13050 10106 315 10106 315 1048
4 0 0 50 -1 2 22 0.0000 4 328 4738 900 7110 webhook receiver / job runner\001
4 0 0 50 -1 2 22 0.0000 4 331 5712 900 6570 privsep improvements (from review)\001
4 0 0 50 -1 2 22 0.0000 4 329 984 900 2925 design\001
4 0 0 50 -1 2 22 0.0000 4 329 4080 900 7650 deployment in a test mode\001
4 0 0 50 -1 2 22 0.0000 4 258 3633 900 8235 enable as a beta service\001
4 0 0 50 -1 2 22 0.0000 4 329 4928 900 8775 user feedback, tidy rough edges\001
4 0 0 50 -1 2 22 0.0000 4 329 4252 900 9315 recommend for general use\001
4 0 0 50 -1 2 22 0.0000 4 329 3287 900 5670 approval in principle\001
4 0 0 50 -1 2 22 0.0000 4 329 2878 900 3825 tag creation utility\001
4 0 0 50 -1 2 22 0.0000 4 329 4960 900 3375 canonical git source code server\001
4 0 0 50 -1 14 22 0.0000 4 294 2405 3870 3825 git-debpush\001
4 0 0 50 -1 2 22 0.0000 4 258 5127 900 4320 robot for automatic .dsc creation\001
4 0 0 50 -1 2 22 0.0000 4 329 4393 900 4815 independent security review\001
4 0 0 50 -1 2 22 0.0000 4 323 1873 6975 6570 mostly done\001
4 0 1 50 -1 2 22 0.0000 4 258 1348 6975 5670 obtained\001
4 0 12 50 -1 2 22 0.0000 4 324 1390 6975 2925 complete\001
4 0 0 50 -1 2 22 0.0000 4 330 4538 6975 7650 VM etc. requested from DSA\001
4 0 0 50 -1 2 22 0.0000 4 329 2632 6975 8235 work in progress\001
4 0 0 50 -1 2 22 0.0000 4 329 4024 6975 8775 awaiting beta deployment\001
4 0 0 50 -1 2 22 0.0000 4 329 2368 6975 9315 hopefully, 2025\001
4 0 12 50 -1 2 22 0.0000 4 329 4428 6975 3375 already exists, in production\001
4 0 12 50 -1 2 22 0.0000 4 329 5224 6975 3825 implemented, documented, tested\001
4 0 12 50 -1 2 22 0.0000 4 329 5224 6975 4320 implemented, documented, tested\001
4 0 12 50 -1 2 22 0.0000 4 329 5409 6975 4815 complete, minor recommendations\001
4 0 0 50 -1 2 22 0.0000 4 331 6454 810 1620 tag2upload current status (October 2024)\001
4 0 0 50 -1 2 22 0.0000 4 324 2482 6975 7110 nearly complete\001
